Name,WeightClassKg,Division,Sex,Best3SquatKg,Best3BenchKg,Best3DeadliftKg,TotalKg,Event,Equipment,Place
Donny Jay,52,High School,M,149.69,104.33,167.83,421.84,SBD,Single-ply,1
J. Spade,52,High School,M,113.4,70.31,136.08,319.78,SBD,Single-ply,2
M. Steele,52,High School,M,81.65,72.57,127.01,281.23,SBD,Single-ply,3
M. Lambert,52,High School,M,90.72,61.24,117.93,269.89,SBD,Single-ply,4
M. Waits,52,High School,M,86.18,58.97,92.99,238.14,SBD,Single-ply,5
C. Ngugen,56,High School,M,158.76,99.79,183.71,442.25,SBD,Single-ply,1
J. Long,56,High School,M,117.93,81.65,136.08,335.66,SBD,Single-ply,2
G. Bond,56,High School,M,92.99,81.65,147.42,322.05,SBD,Single-ply,3
S. Hart,56,High School,M,90.72,61.24,136.08,288.03,SBD,Single-ply,4
R. Johnston,60,High School,M,136.08,90.72,181.44,408.23,SBD,Single-ply,1
M. Butler,60,High School,M,154.22,79.38,167.83,401.43,SBD,Single-ply,2
L. Cockran,60,High School,M,113.4,92.99,163.29,369.68,SBD,Single-ply,3
M. Brinkley,60,High School,M,108.86,104.33,147.42,360.61,SBD,Single-ply,4
B. Quish,60,High School,M,117.93,83.91,140.61,342.46,SBD,Single-ply,7
D. Price,60,High School,M,136.08,83.91,140.61,360.61,SBD,Single-ply,5
N. Seix,60,High School,M,136.08,74.84,142.88,353.8,SBD,Single-ply,6
S. Gonzales,60,High School,M,127.01,72.57,142.88,342.46,SBD,Single-ply,8
M. Ryan,60,High School,M,113.4,74.84,142.88,331.12,SBD,Single-ply,10
D. Craine,60,High School,M,113.4,70.31,158.76,342.46,SBD,Single-ply,9
J. Tucee,60,High School,M,104.33,86.18,138.35,328.85,SBD,Single-ply,11
L. Lee,67.5,High School,M,199.58,104.33,217.72,521.63,SBD,Single-ply,1
J. Lambest,67.5,High School,M,170.1,127.01,215.46,512.56,SBD,Single-ply,2
M. Payne,67.5,High School,M,190.51,95.25,215.46,501.22,SBD,Single-ply,3
M. Etchison,67.5,High School,M,136.08,124.74,192.78,453.59,SBD,Single-ply,5
C. Grange,67.5,High School,M,190.51,95.25,181.44,467.2,SBD,Single-ply,4
N. Parrow,67.5,High School,M,158.76,97.52,176.9,433.18,SBD,Single-ply,6
T. Hill,67.5,High School,M,158.76,99.79,170.1,428.65,SBD,Single-ply,7
J. Frank,67.5,High School,M,147.42,115.67,163.29,426.38,SBD,Single-ply,8
S. Postlalnuhait,67.5,High School,M,140.61,92.99,183.71,417.31,SBD,Single-ply,9
D. Isam,67.5,High School,M,131.54,97.52,181.44,410.5,SBD,Single-ply,10
A. Phillips,67.5,High School,M,129.27,77.11,195.04,401.43,SBD,Single-ply,11
J. McClain,67.5,High School,M,133.81,81.65,154.22,369.68,SBD,Single-ply,12
M. Patrick,67.5,High School,M,117.93,92.99,154.22,365.14,SBD,Single-ply,13
J. Wright,67.5,High School,M,115.67,83.91,158.76,358.34,SBD,Single-ply,14
H. Soade,67.5,High School,M,113.4,79.38,158.76,351.53,SBD,Single-ply,15
T. Scott,67.5,High School,M,106.59,74.84,158.76,340.19,SBD,Single-ply,16
M. Harbsthorne,67.5,High School,M,102.06,70.31,158.76,331.12,SBD,Single-ply,17
T. Higgins,67.5,High School,M,111.13,65.77,149.69,326.59,SBD,Single-ply,18
E. Smith,67.5,High School,M,90.72,86.18,136.08,312.98,SBD,Single-ply,19
G. Lopez,67.5,High School,M,97.52,79.38,127.01,303.91,SBD,Single-ply,20
D. Johnson,67.5,High School,M,72.57,77.11,138.35,288.03,SBD,Single-ply,21
K. Klingman,67.5,High School,M,74.84,65.77,136.08,276.69,SBD,Single-ply,22
B. Teagarder,75,High School,M,226.8,108.86,215.46,551.12,SBD,Single-ply,1
R. Coop,75,High School,M,190.51,136.08,217.72,544.31,SBD,Single-ply,2
L. Randolph,75,High School,M,176.9,102.06,217.72,496.68,SBD,Single-ply,3
D. Watkins,75,High School,M,170.1,104.33,204.12,478.54,SBD,Single-ply,4
D. McCaskill,75,High School,M,174.63,95.25,204.12,474,SBD,Single-ply,5
J. Tutle,75,High School,M,140.61,90.72,185.97,417.31,SBD,Single-ply,11
M. McBurnett,75,High School,M,145.15,99.79,197.31,442.25,SBD,Single-ply,6
C. McDaniel,75,High School,M,161.03,95.25,185.97,442.25,SBD,Single-ply,7
P. Turner,75,High School,M,138.35,92.99,199.58,430.91,SBD,Single-ply,8
A. Helvie,75,High School,M,154.22,83.91,190.51,428.65,SBD,Single-ply,9
L. Fulton,75,High School,M,131.54,106.59,183.71,421.84,SBD,Single-ply,10
J. Archie,75,High School,M,158.76,86.18,154.22,399.16,SBD,Single-ply,12
T. West,75,High School,M,138.35,79.38,167.83,385.55,SBD,Single-ply,13
B. Mages,75,High School,M,127.01,88.45,165.56,381.02,SBD,Single-ply,14
J. Warren,75,High School,M,117.93,102.06,158.76,378.75,SBD,Single-ply,15
B. Carter,75,High School,M,113.4,77.11,172.37,362.87,SBD,Single-ply,16
D. Eaton,75,High School,M,113.4,97.52,147.42,358.34,SBD,Single-ply,17
R. Landon,75,High School,M,124.74,79.38,122.47,326.59,SBD,Single-ply,18
N. Scott,75,High School,M,108.86,70.31,145.15,324.32,SBD,Single-ply,19
Mike Magee,82.5,High School,M,272.16,145.15,233.6,650.91,SBD,Single-ply,1
R. Gifford,82.5,High School,M,208.65,124.74,199.58,532.97,SBD,Single-ply,2
J. Trussler,82.5,High School,M,181.44,113.4,210.92,505.76,SBD,Single-ply,3
B. Glass,82.5,High School,M,181.44,104.33,181.44,467.2,SBD,Single-ply,5
J. Clinton,82.5,High School,M,149.69,111.13,199.58,460.4,SBD,Single-ply,6
C. Asher,82.5,High School,M,172.37,102.06,181.44,455.86,SBD,Single-ply,7
C. Williams,82.5,High School,M,158.76,90.72,226.8,476.27,SBD,Single-ply,4
T. Wynn,82.5,High School,M,165.56,99.79,185.97,451.32,SBD,Single-ply,8
T. Daignault,82.5,High School,M,158.76,113.4,172.37,444.52,SBD,Single-ply,9
R. Worth,82.5,High School,M,158.76,102.06,181.44,442.25,SBD,Single-ply,10
K. Lancaster,82.5,High School,M,156.49,90.72,192.78,439.99,SBD,Single-ply,11
S. Fields,82.5,High School,M,149.69,120.2,170.1,439.99,SBD,Single-ply,12
S. Crammer,82.5,High School,M,140.61,106.59,170.1,417.31,SBD,Single-ply,13
T. Lykins,82.5,High School,M,90.72,81.65,181.44,353.8,SBD,Single-ply,15
K. Grayson,82.5,High School,M,113.4,81.65,181.44,376.48,SBD,Single-ply,14
K. Daniels,82.5,High School,M,140.61,81.65,158.76,381.02,SBD,Single-ply,G
B. Jackson,90,High School,M,197.31,113.4,242.67,553.38,SBD,Single-ply,1
A. Blake,90,High School,M,181.44,111.13,258.55,551.12,SBD,Single-ply,2
K. Gray,90,High School,M,190.51,140.61,217.72,548.85,SBD,Single-ply,3
J. McCracken,90,High School,M,172.37,90.72,213.19,476.27,SBD,Single-ply,6
R. Clark,90,High School,M,165.56,120.2,224.53,510.29,SBD,Single-ply,4
T. Huckleberry,90,High School,M,181.44,90.72,217.72,489.88,SBD,Single-ply,5
M. Stephens,90,High School,M,127.01,83.91,181.44,392.36,SBD,Single-ply,11
T. Lowery,90,High School,M,183.71,104.33,181.44,469.47,SBD,Single-ply,7
R. Davis,90,High School,M,158.76,113.4,181.44,453.59,SBD,Single-ply,9
S. Noble,90,High School,M,172.37,102.06,183.71,458.13,SBD,Single-ply,8
M. Thompson,90,High School,M,136.08,95.25,181.44,412.77,SBD,Single-ply,10
D. Eck,90,High School,M,102.06,88.45,156.49,347,SBD,Single-ply,12
J. Lee,100,High School,M,222.26,142.88,235.87,601.01,SBD,Single-ply,1
C. Wallen,100,High School,M,215.46,136.08,226.8,578.33,SBD,Single-ply,2
M. Crum,100,High School,M,192.78,136.08,242.67,571.53,SBD,Single-ply,3
B. Chatman,100,High School,M,165.56,113.4,226.8,505.76,SBD,Single-ply,4
T. Bullock,100,High School,M,158.76,147.42,195.04,501.22,SBD,Single-ply,5
D. Cantley,100,High School,M,181.44,113.4,197.31,492.15,SBD,Single-ply,6
B. Eckstein,100,High School,M,158.76,97.52,208.65,464.93,SBD,Single-ply,7
E. Roenke,100,High School,M,158.76,97.52,208.65,464.93,SBD,Single-ply,8
K. Johnson,100,High School,M,136.08,113.4,158.76,408.23,SBD,Single-ply,9
A. Brooks,100,High School,M,104.33,97.52,151.95,353.8,SBD,Single-ply,10
T. Gaelias,100+,High School,M,247.21,156.49,258.55,662.25,SBD,Single-ply,1
R. Sewell,100+,High School,M,244.94,149.69,231.33,625.96,SBD,Single-ply,2
M. Brady,100+,High School,M,235.87,120.2,256.28,612.35,SBD,Single-ply,3
D. Fowler,100+,High School,M,204.12,106.59,229.06,539.78,SBD,Single-ply,4
J. Weygandt,100+,High School,M,181.44,113.4,204.12,498.95,SBD,Single-ply,5
B. Dobbs,100+,High School,M,172.37,111.13,192.78,476.27,SBD,Single-ply,6
S. Catainger,100+,High School,M,120.2,97.52,158.76,376.48,SBD,Single-ply,7
