Name,Division,Equipment,WeightClassKg,BodyweightKg,Event,Best3SquatKg,Best3BenchKg,Best3DeadliftKg,TotalKg,Sex,Place
Dawn Hickman,Masters 45-49,Multi-ply,48,46.81,SBD,163.29,102.06,163.29,428.64,F,1
Dawn Hickman,Open,Multi-ply,48,46.81,SBD,163.29,102.06,163.29,428.64,F,1
Candace Puopolo,Open,Multi-ply,60,58.51,SBD,174.63,108.86,183.7,467.2,F,1
Rheta West,Open,Multi-ply,67.5,65.68,SBD,288.03,192.78,229.06,709.87,F,1
Tracey Patrick,Open,Multi-ply,67.5,66.22,SBD,272.16,174.63,215.46,662.24,F,2
Chanel Nolet,Open,Multi-ply,67.5,66.13,SBD,201.85,136.08,179.17,517.1,F,3
Patti Lee,Open,Multi-ply,75,74.3,SBD,258.55,136.08,226.8,621.42,F,1
Samantha Belliveau,Open,Multi-ply,75,74.84,SBD,219.99,140.61,192.78,553.38,F,2
Holly Beidelschies,Open,Multi-ply,75,74.03,SBD,229.06,120.2,195.04,544.31,F,2
Amy Weisberger,Open,Multi-ply,75,73.3,SBD,201.85,122.47,192.78,517.1,F,4
Katey Brent,Open,Multi-ply,82.5,80.47,SBD,260.82,163.29,213.19,637.3,F,1
Alison Crowdus,Open,Multi-ply,90+,114.76,SBD,235.87,226.8,206.38,669.05,F,1
Amber Crabtree,Open,Wraps,52,50.98,SBD,97.52,56.7,113.4,267.62,F,1
Shana Miller,Open,Wraps,56,54.79,SBD,181.44,102.06,170.1,453.59,F,1
Amanda Blau,Open,Wraps,56,55.34,SBD,147.42,77.11,163.29,387.82,F,2
Tracy L. Jones,Open,Wraps,67.5,67.04,SBD,199.58,97.52,201.85,498.95,F,1
Janel Vegter,Open,Raw,67.5,66.68,SBD,183.7,102.06,192.78,478.54,F,2
Lisa Sheipline,Open,Wraps,67.5,66.5,SBD,165.56,90.72,172.37,428.64,F,4
Sarah Lewis #1,Open,Wraps,75,74.84,SBD,247.21,131.54,247.21,625.96,F,1
Amanda Pridgen,Open,Wraps,75,74.16,SBD,188.24,47.63,204.12,439.98,F,6
Maureen Bornbaum,Open,Raw,75,74.48,SBD,161.03,99.79,204.12,464.93,F,4
Rachael Naseman,Open,Wraps,75,74.21,SBD,172.37,95.25,185.97,453.59,F,5
Jeanine Whittaker,Open,Wraps,82.5,81.83,SBD,276.69,140.61,263.08,680.39,F,1
Molly Mullikin,Open,Wraps,75,74.03,SBD,204.12,102.06,238.14,544.31,F,3
Crystal Guzniczak,Open,Wraps,82.5,81.19,SBD,163.29,83.91,204.12,451.32,F,2
Natasha Lee Minor,Open,Wraps,82.5,81.28,SBD,163.29,99.79,181.44,444.52,F,3
Samantha DiBois,Open,Wraps,90+,160.57,SBD,281.23,172.37,272.16,725.75,F,1
Jessica Bowersock,Open,Wraps,110,109.86,SBD,238.14,115.67,215.46,569.26,F,1
Michelle Sothen,Masters 45-49,Raw,75,74.39,SBD,158.76,108.86,185.97,453.59,F,1
Ellen Stein,Masters 60-64,Wraps,60,59.33,SBD,174.63,91.63,190.51,456.77,F,1
Valerie King,Open,Multi-ply,75,74.48,SBD,233.6,129.27,181.44,544.31,F,3
Aura Sweeney,Open,Single-ply,82.5,78.2,SBD,161.03,124.74,167.83,453.59,F,1
Kelly Bowen,Open,Multi-ply,82.5,82.28,SBD,181.44,108.86,158.76,449.06,F,2
Kara Savenik,Open,Multi-ply,90,89.54,SBD,242.67,161.03,170.1,573.79,F,1
Amber Jackson,Open,Multi-ply,90,85.37,SBD,226.8,120.2,167.83,514.83,F,2
Heather Davidson,Open,Multi-ply,90+,151.68,SBD,265.35,167.83,181.44,614.62,F,2
Rachel Zipsie,Masters 45-49,Multi-ply,90+,111.77,SBD,215.46,113.4,165.56,494.42,F,1
Rachel Zipsie,Open,Multi-ply,90+,111.77,SBD,215.46,113.4,165.56,494.42,F,3
Lauren Rodriguez,Juniors,Wraps,52,49.17,SBD,86.18,54.43,111.13,251.74,F,1
Lauren Rodriguez,Open,Wraps,52,49.17,SBD,86.18,54.43,111.13,251.74,F,2
Annie Fry,Open,Wraps,56,54.61,SBD,120.2,68.04,151.95,340.19,F,3
Becci Jahn,Open,Wraps,56,54.34,SBD,115.67,43.09,133.81,292.57,F,4
Alecia Varga,Open,Wraps,60,59.96,SBD,156.49,90.72,151.95,399.16,F,1
Alecia Varga,Submasters,Wraps,60,59.96,SBD,156.49,90.72,151.95,399.16,F,1
Courtney Ceci,Open,Wraps,60,59.78,SBD,136.08,90.72,158.76,385.55,F,2
Courtney Ceci,Submasters,Wraps,60,59.78,SBD,136.08,90.72,158.76,385.55,F,2
Cory Mills,Open,Wraps,60,59.42,SBD,113.4,61.23,131.54,306.17,F,3
Stephanie Marshall,Open,Wraps,60,58.69,SBD,99.79,61.23,124.74,285.76,F,4
Tasha Whelan,Open,Wraps,67.5,65.59,SBD,161.03,90.72,195.04,446.79,F,3
Abi Stump,Open,Wraps,67.5,66.41,SBD,127.01,81.65,154.22,362.87,F,5
Cathy Snell-Caisse,Open,Wraps,67.5,63.59,SBD,124.74,77.11,156.49,358.34,F,6
Anna DuCharme,Open,Wraps,67.5,64.77,SBD,138.35,54.43,156.49,349.27,F,7
Laura Seelaus,Open,Wraps,67.5,63.78,SBD,65.77,38.56,92.99,197.31,F,8
Michelle Forlenza,Open,Wraps,75,73.39,SBD,151.95,83.91,183.7,419.57,F,8
Danae Rodriguez,Open,Wraps,75,73.84,SBD,108.86,61.23,147.42,317.51,F,9
Alice Beck,Open,Wraps,75,69.85,SBD,115.67,61.23,138.35,315.25,F,10
Meggan Jean Hunott,Open,Wraps,82.5,81.56,SBD,165.11,90.72,161.03,416.85,F,4
Devee Sresthadatta,Open,Wraps,82.5,80.01,SBD,124.74,65.77,161.03,351.53,F,5
Miranda Austin,Open,Wraps,90,89.63,SBD,190.51,90.72,204.12,485.34,F,1
Nikki Allen,Open,Wraps,90,87.45,SBD,129.27,79.38,161.03,369.68,F,3
Jessica Wiggins,Open,Wraps,90,89.27,SBD,140.61,70.31,158.76,369.68,F,4
Tasha Whelan,Open,Wraps,90,86.18,SBD,115.67,49.9,145.15,310.71,F,5
Selena Edmondson,Open,Wraps,100,98.25,SBD,208.65,102.06,163.29,474,F,1
Kora Whitaker,Open,Wraps,75,74.84,SBD,172.37,81.65,183.7,437.72,F,7
Aria Marie DeSimini,Open,Wraps,90,89.09,SBD,163.29,95.25,195.04,453.59,F,2
Ailene Parrill,Juniors,Wraps,110,103.15,SBD,174.63,102.06,172.37,449.06,F,1
Tori Creighton,Teenage 13-15,Wraps,52,51.53,SBD,106.59,52.16,106.59,265.35,F,1
Michele Paris,Masters 40-44,Wraps,56,55.02,SBD,102.06,54.43,129.27,285.76,F,1
Angela Adams,Masters 40-44,Wraps,90+,118.75,SBD,142.88,138.35,226.8,508.02,F,1
Jodey Reisz,Masters 40-44,Wraps,90+,124.65,SBD,167.83,122.47,188.24,478.54,F,2
Jeanne Hardy,Masters 40-44,Wraps,90+,124.83,SBD,192.78,106.59,149.69,449.06,F,3
Amy Hatley,Submasters,Wraps,60,59.06,SBD,102.06,47.63,142.88,292.57,F,3
Pamela Chapman,Submasters,Wraps,75,74.39,SBD,165.56,86.18,179.17,430.91,F,1
Rachel Lindley,Submasters,Wraps,82.5,80.01,SBD,147.42,83.91,185.97,417.3,F,1
Kristel Barber,Submasters,Wraps,82.5,81.83,SBD,129.27,65.77,158.76,353.8,F,2
Sherry Chaffin,Masters 45-49,Wraps,67.5,67.04,SBD,117.93,61.23,158.76,337.93,F,1
Shelly Brandenburg,Masters 40-44,Multi-ply,75,74.84,SBD,165.56,117.93,136.08,419.57,F,1
Jodie Reynolds,Masters 55-59,Multi-ply,82.5,80.83,SBD,204.12,108.86,174.63,487.61,F,1
Baylee Meyer,Teenage 13-15,Raw,75,68.76,B,,43.09,,43.09,F,1
Aissa Galang,Open,Raw,110,106.23,B,,115.67,,115.67,F,1
Darlene Delk,Open,Raw,82.5,81.1,SBD,,,,,F,DQ
Amanda Michelle Penix,Open,Raw,90+,124.47,SBD,127.01,,,,F,DQ
Deanna Cassata,Open,Multi-ply,60,58.88,SBD,136.08,,,,F,DQ
Anna McCloskey,Open,Multi-ply,82.5,82.19,SBD,278.96,,,,F,DQ
Sarah Brown #1,Open,Raw,56,54.98,SBD,,,,,F,DQ
Melissa Stevens,Open,Multi-ply,56,55.88,SBD,210.92,,181.44,,F,DQ
Shawna Mendelson,Open,Multi-ply,82.5,81.83,B,,,,,F,DQ
Andrea Corder,Open,Multi-ply,82.5,78.93,SBD,247.21,,,,F,DQ
